<?xml version="1.0" encoding="UTF-8" standalone="no"?>
<!-- Created with Inkscape (http://www.inkscape.org/) -->

<svg
   xmlns:dc="http://purl.org/dc/elements/1.1/"
   xmlns:cc="http://creativecommons.org/ns#"
   xmlns:rdf="http://www.w3.org/1999/02/22-rdf-syntax-ns#"
   xmlns:svg="http://www.w3.org/2000/svg"
   xmlns="http://www.w3.org/2000/svg"
   xmlns:sodipodi="http://sodipodi.sourceforge.net/DTD/sodipodi-0.dtd"
   xmlns:inkscape="http://www.inkscape.org/namespaces/inkscape"
   width="8in"
   height="5.5in"
   viewBox="0 0 203.2 139.7"
   version="1.1"
   id="svg8"
   inkscape:version="0.92.2 (5c3e80d, 2017-08-06)"
   sodipodi:docname="question_graph1.svg">
  <defs
     id="defs2" />
  <sodipodi:namedview
     id="base"
     pagecolor="#ffffff"
     bordercolor="#666666"
     borderopacity="1.0"
     inkscape:pageopacity="0.0"
     inkscape:pageshadow="2"
     inkscape:zoom="2.0006519"
     inkscape:cx="412.43678"
     inkscape:cy="270.08452"
     inkscape:document-units="mm"
     inkscape:current-layer="layer1"
     showgrid="false"
     units="in"
     inkscape:window-width="3000"
     inkscape:window-height="1895"
     inkscape:window-x="-13"
     inkscape:window-y="-13"
     inkscape:window-maximized="1" />
  <metadata
     id="metadata5">
    <rdf:RDF>
      <cc:Work
         rdf:about="">
        <dc:format>image/svg+xml</dc:format>
        <dc:type
           rdf:resource="http://purl.org/dc/dcmitype/StillImage" />
        <dc:title></dc:title>
      </cc:Work>
    </rdf:RDF>
  </metadata>
  <g
     inkscape:label="Layer 1"
     inkscape:groupmode="layer"
     id="layer1"
     transform="translate(0,-157.29998)">
    <g
       id="g4828"
       transform="translate(-0.63146077,2.9696516)">
      <rect
         y="164.2588"
         x="76.960831"
         height="19.961746"
         width="49.278339"
         id="rect4517"
         style="fill:#b92b27;fill-opacity:1;stroke:#b92b27;stroke-width:3.97480869;stroke-linejoin:round;stroke-miterlimit:4;stroke-dasharray:none;stroke-opacity:1" />
      <text
         id="text4525"
         y="173.70197"
         x="88.371368"
         style="font-style:normal;font-variant:normal;font-weight:normal;font-stretch:normal;font-size:5.64444447px;line-height:1.25;font-family:'Lucida Sans';-inkscape-font-specification:'Lucida Sans';letter-spacing:0px;word-spacing:0px;fill:#ffffff;fill-opacity:1;stroke:none;stroke-width:0.26458332"
         xml:space="preserve"><tspan
           style="font-size:5.64444447px;fill:#ffffff;fill-opacity:1;stroke-width:0.26458332"
           y="173.70197"
           x="88.371368"
           id="tspan4523"
           sodipodi:role="line">Question</tspan></text>
      <g
         transform="translate(-2.7769848)"
         id="g4566">
        <rect
           style="fill:#b92b27;fill-opacity:1;stroke:#b92b27;stroke-width:3.97480893;stroke-linejoin:round;stroke-miterlimit:4;stroke-dasharray:none;stroke-opacity:1"
           id="rect4517-1"
           width="49.278339"
           height="19.961746"
           x="15.564389"
           y="238.48387" />
        <text
           xml:space="preserve"
           style="font-style:normal;font-variant:normal;font-weight:normal;font-stretch:normal;font-size:5.64444447px;line-height:1.25;font-family:'Lucida Sans';-inkscape-font-specification:'Lucida Sans';letter-spacing:0px;word-spacing:0px;fill:#ffffff;fill-opacity:1;stroke:none;stroke-width:0.26458332"
           x="27.485691"
           y="246.32663"
           id="text4525-2"><tspan
             sodipodi:role="line"
             id="tspan4523-1"
             x="27.485691"
             y="246.32663"
             style="font-size:5.64444447px;fill:#ffffff;fill-opacity:1;stroke-width:0.26458332">Duplicate</tspan><tspan
             sodipodi:role="line"
             x="27.485691"
             y="253.38219"
             style="font-size:5.64444447px;fill:#ffffff;fill-opacity:1;stroke-width:0.26458332"
             id="tspan4558">Question</tspan></text>
      </g>
      <g
         transform="translate(4.8998306)"
         id="g4572">
        <rect
           style="fill:#b92b27;fill-opacity:1;stroke:#b92b27;stroke-width:3.97480893;stroke-linejoin:round;stroke-miterlimit:4;stroke-dasharray:none;stroke-opacity:1"
           id="rect4517-7"
           width="49.278339"
           height="19.961746"
           x="137.49757"
           y="238.08714" />
        <text
           xml:space="preserve"
           style="font-style:normal;font-variant:normal;font-weight:normal;font-stretch:normal;font-size:5.64444447px;line-height:1.25;font-family:'Lucida Sans';-inkscape-font-specification:'Lucida Sans';letter-spacing:0px;word-spacing:0px;fill:#ffffff;fill-opacity:1;stroke:none;stroke-width:0.26458332"
           x="149.41887"
           y="245.93062"
           id="text4525-7"><tspan
             sodipodi:role="line"
             id="tspan4523-0"
             x="149.41887"
             y="245.93062"
             style="font-size:5.64444447px;fill:#ffffff;fill-opacity:1;stroke-width:0.26458332">Duplicate</tspan><tspan
             sodipodi:role="line"
             x="149.41887"
             y="252.98618"
             style="font-size:5.64444447px;fill:#ffffff;fill-opacity:1;stroke-width:0.26458332"
             id="tspan4560">Question</tspan></text>
      </g>
      <g
         id="g4566-8"
         transform="translate(-2.7772163,-65.992018)">
        <rect
           style="fill:#b92b27;fill-opacity:1;stroke:#b92b27;stroke-width:3.97480893;stroke-linejoin:round;stroke-miterlimit:4;stroke-dasharray:none;stroke-opacity:1"
           id="rect4517-1-8"
           width="49.278339"
           height="19.961746"
           x="15.564389"
           y="238.48387" />
        <text
           xml:space="preserve"
           style="font-style:normal;font-variant:normal;font-weight:normal;font-stretch:normal;font-size:5.64444447px;line-height:1.25;font-family:'Lucida Sans';-inkscape-font-specification:'Lucida Sans';letter-spacing:0px;word-spacing:0px;fill:#ffffff;fill-opacity:1;stroke:none;stroke-width:0.26458332"
           x="27.485691"
           y="246.32663"
           id="text4525-2-8"><tspan
             sodipodi:role="line"
             id="tspan4523-1-8"
             x="27.485691"
             y="246.32663"
             style="font-size:5.64444447px;fill:#ffffff;fill-opacity:1;stroke-width:0.26458332">Duplicate</tspan><tspan
             sodipodi:role="line"
             x="27.485691"
             y="253.38219"
             style="font-size:5.64444447px;fill:#ffffff;fill-opacity:1;stroke-width:0.26458332"
             id="tspan4558-5">Question</tspan></text>
      </g>
      <g
         id="g4566-6"
         transform="translate(126.83302,-66.388764)">
        <rect
           style="fill:#b92b27;fill-opacity:1;stroke:#b92b27;stroke-width:3.97480893;stroke-linejoin:round;stroke-miterlimit:4;stroke-dasharray:none;stroke-opacity:1"
           id="rect4517-1-9"
           width="49.278339"
           height="19.961746"
           x="15.564389"
           y="238.48387" />
        <text
           xml:space="preserve"
           style="font-style:normal;font-variant:normal;font-weight:normal;font-stretch:normal;font-size:5.64444447px;line-height:1.25;font-family:'Lucida Sans';-inkscape-font-specification:'Lucida Sans';letter-spacing:0px;word-spacing:0px;fill:#ffffff;fill-opacity:1;stroke:none;stroke-width:0.26458332"
           x="27.485691"
           y="246.32663"
           id="text4525-2-9"><tspan
             sodipodi:role="line"
             id="tspan4523-1-1"
             x="27.485691"
             y="246.32663"
             style="font-size:5.64444447px;fill:#ffffff;fill-opacity:1;stroke-width:0.26458332">Duplicate</tspan><tspan
             sodipodi:role="line"
             x="27.485691"
             y="253.38219"
             style="font-size:5.64444447px;fill:#ffffff;fill-opacity:1;stroke-width:0.26458332"
             id="tspan4558-8">Question</tspan></text>
      </g>
      <path
         inkscape:connector-curvature="0"
         id="path4615"
         d="M 77.233157,171.09935 59.247354,181.94373"
         style="fill:#b92b27;fill-opacity:1;stroke:#b92b27;stroke-width:2;stroke-linecap:butt;stroke-linejoin:miter;stroke-miterlimit:4;stroke-dasharray:none;stroke-opacity:1" />
      <path
         inkscape:connector-curvature="0"
         id="path4615-4"
         d="m 125.10714,170.04137 17.9858,10.84438"
         style="fill:#b92b27;fill-opacity:1;stroke:#b92b27;stroke-width:2;stroke-linecap:butt;stroke-linejoin:miter;stroke-miterlimit:4;stroke-dasharray:none;stroke-opacity:1" />
      <rect
         y="198.54482"
         x="142.3974"
         height="19.961746"
         width="49.278339"
         id="rect4517-6"
         style="fill:#b92b27;fill-opacity:1;stroke:#b92b27;stroke-width:3.97480893;stroke-linejoin:round;stroke-miterlimit:4;stroke-dasharray:none;stroke-opacity:1" />
      <rect
         y="264.14011"
         x="142.3974"
         height="19.961746"
         width="49.278339"
         id="rect4517-61"
         style="fill:#b92b27;fill-opacity:1;stroke:#b92b27;stroke-width:3.97480893;stroke-linejoin:round;stroke-miterlimit:4;stroke-dasharray:none;stroke-opacity:1" />
      <rect
         y="198.54483"
         x="12.787404"
         height="19.961746"
         width="49.278339"
         id="rect4517-6-4"
         style="fill:#b92b27;fill-opacity:1;stroke:#b92b27;stroke-width:3.97480893;stroke-linejoin:round;stroke-miterlimit:4;stroke-dasharray:none;stroke-opacity:1" />
      <rect
         y="264.13983"
         x="12.787404"
         height="19.961746"
         width="49.278339"
         id="rect4517-6-6"
         style="fill:#b92b27;fill-opacity:1;stroke:#b92b27;stroke-width:3.97480893;stroke-linejoin:round;stroke-miterlimit:4;stroke-dasharray:none;stroke-opacity:1" />
      <rect
         y="190.34541"
         x="77.059975"
         height="19.961746"
         width="49.278339"
         id="rect4517-6-1"
         style="fill:#b92b27;fill-opacity:1;stroke:#b92b27;stroke-width:3.97480893;stroke-linejoin:round;stroke-miterlimit:4;stroke-dasharray:none;stroke-opacity:1" />
      <text
         id="text4682"
         y="201.11978"
         x="89.267776"
         style="font-style:normal;font-variant:normal;font-weight:normal;font-stretch:normal;font-size:6.3499999px;line-height:1.25;font-family:'Lucida Sans';-inkscape-font-specification:'Lucida Sans';letter-spacing:0px;word-spacing:0px;fill:#ffffff;fill-opacity:1;stroke:none;stroke-width:0.26458332"
         xml:space="preserve"><tspan
           style="font-size:6.3499999px;fill:#ffffff;fill-opacity:1;stroke-width:0.26458332"
           y="201.11978"
           x="89.267776"
           id="tspan4680"
           sodipodi:role="line">Answer</tspan></text>
      <text
         id="text4682-0"
         y="210.64912"
         x="25.63912"
         style="font-style:normal;font-variant:normal;font-weight:normal;font-stretch:normal;font-size:6.3499999px;line-height:1.25;font-family:'Lucida Sans';-inkscape-font-specification:'Lucida Sans';letter-spacing:0px;word-spacing:0px;fill:#ffffff;fill-opacity:1;stroke:none;stroke-width:0.26458332"
         xml:space="preserve"><tspan
           style="font-size:6.3499999px;fill:#ffffff;fill-opacity:1;stroke-width:0.26458332"
           y="210.64912"
           x="25.63912"
           id="tspan4680-4"
           sodipodi:role="line">Answer</tspan></text>
      <text
         id="text4682-3"
         y="210.78137"
         x="155.7717"
         style="font-style:normal;font-variant:normal;font-weight:normal;font-stretch:normal;font-size:6.3499999px;line-height:1.25;font-family:'Lucida Sans';-inkscape-font-specification:'Lucida Sans';letter-spacing:0px;word-spacing:0px;fill:#ffffff;fill-opacity:1;stroke:none;stroke-width:0.26458332"
         xml:space="preserve"><tspan
           style="font-size:6.3499999px;fill:#ffffff;fill-opacity:1;stroke-width:0.26458332"
           y="210.78137"
           x="155.7717"
           id="tspan4680-3"
           sodipodi:role="line">Answer</tspan></text>
      <text
         id="text4682-6"
         y="275.71542"
         x="24.581135"
         style="font-style:normal;font-variant:normal;font-weight:normal;font-stretch:normal;font-size:6.3499999px;line-height:1.25;font-family:'Lucida Sans';-inkscape-font-specification:'Lucida Sans';letter-spacing:0px;word-spacing:0px;fill:#ffffff;fill-opacity:1;stroke:none;stroke-width:0.26458332"
         xml:space="preserve"><tspan
           style="font-size:6.3499999px;fill:#ffffff;fill-opacity:1;stroke-width:0.26458332"
           y="275.71542"
           x="24.581135"
           id="tspan4680-2"
           sodipodi:role="line">Answer</tspan></text>
      <text
         id="text4682-5"
         y="271.74796"
         x="155.11047"
         style="font-style:normal;font-variant:normal;font-weight:normal;font-stretch:normal;font-size:6.3499999px;line-height:1.25;font-family:'Lucida Sans';-inkscape-font-specification:'Lucida Sans';letter-spacing:0px;word-spacing:0px;fill:#ffffff;fill-opacity:1;stroke:none;stroke-width:0.26458332"
         xml:space="preserve"><tspan
           style="font-size:6.3499999px;fill:#ffffff;fill-opacity:1;stroke-width:0.26458332"
           y="271.74796"
           x="155.11047"
           id="tspan4680-0"
           sodipodi:role="line">  Best</tspan><tspan
           id="tspan4726"
           style="font-size:6.3499999px;fill:#ffffff;fill-opacity:1;stroke-width:0.26458332"
           y="279.68546"
           x="155.11047"
           sodipodi:role="line">Answer</tspan></text>
      <path
         inkscape:connector-curvature="0"
         id="path4728"
         d="m 100.11216,181.54699 0.2645,11.77012"
         style="fill:none;stroke:#b92b27;stroke-width:2;stroke-linecap:butt;stroke-linejoin:miter;stroke-miterlimit:4;stroke-dasharray:none;stroke-opacity:1" />
      <path
         inkscape:connector-curvature="0"
         id="path4728-2"
         d="m 36.765099,189.41578 0.2645,11.77012"
         style="fill:none;stroke:#b92b27;stroke-width:2;stroke-linecap:butt;stroke-linejoin:miter;stroke-miterlimit:4;stroke-dasharray:none;stroke-opacity:1" />
      <path
         inkscape:connector-curvature="0"
         id="path4728-6"
         d="m 166.63319,189.01903 0.2645,11.77012"
         style="fill:none;stroke:#b92b27;stroke-width:2;stroke-linecap:butt;stroke-linejoin:miter;stroke-miterlimit:4;stroke-dasharray:none;stroke-opacity:1" />
      <path
         inkscape:connector-curvature="0"
         id="path4728-9"
         d="m 35.971607,255.67231 0.2645,11.77012"
         style="fill:none;stroke:#b92b27;stroke-width:2;stroke-linecap:butt;stroke-linejoin:miter;stroke-miterlimit:4;stroke-dasharray:none;stroke-opacity:1" />
      <path
         inkscape:connector-curvature="0"
         id="path4728-27"
         d="m 167.16218,255.01106 0.2645,11.77012"
         style="fill:none;stroke:#b92b27;stroke-width:2;stroke-linecap:butt;stroke-linejoin:miter;stroke-miterlimit:4;stroke-dasharray:none;stroke-opacity:1" />
      <path
         inkscape:connector-curvature="0"
         id="path4763"
         d="m 79.084637,182.07598 -10.315387,11.77012 0.661244,41.3938 -9.125151,11.37338 v 0"
         style="fill:none;stroke:#b92b27;stroke-width:2;stroke-linecap:butt;stroke-linejoin:miter;stroke-miterlimit:4;stroke-dasharray:none;stroke-opacity:1" />
      <path
         inkscape:connector-curvature="0"
         id="path4763-7"
         d="m 123.19745,181.04658 10.31538,11.77012 -0.66124,41.3938 9.12515,11.37338 v 0"
         style="fill:none;stroke:#b92b27;stroke-width:2;stroke-linecap:butt;stroke-linejoin:miter;stroke-miterlimit:4;stroke-dasharray:none;stroke-opacity:1" />
    </g>
  </g>
</svg>
